{
    "widgets": [
        {
            "type": "metric",
            "x": 0,
            "y": 0,
            "width": 9,
            "height": 6,
            "properties": {
                "view": "timeSeries",
                "stacked": false,
                "metrics": [
                    [ "AWS/EC2", "CPUUtilization", "InstanceId", "i-0d7d8f367822d0d49" ],
                    [ "...", "i-0f669a5b025d2a97d" ]
                ],
                "region": "eu-west-1"
            }
        },
        {
            "type": "metric",
            "x": 9,
            "y": 0,
            "width": 6,
            "height": 6,
            "properties": {
                "view": "singleValue",
                "metrics": [
                    [ "AWS/EC2", "StatusCheckFailed_Instance", "InstanceId", "i-0d7d8f367822d0d49" ],
                    [ "...", "i-0f669a5b025d2a97d" ]
                ],
                "region": "eu-west-1",
                "title": "Instances Dead"
            }
        },
        {
            "type": "metric",
            "x": 15,
            "y": 0,
            "width": 9,
            "height": 6,
            "properties": {
                "view": "timeSeries",
                "stacked": false,
                "metrics": [
                    [ "System/Linux", "MemoryUsed", "InstanceId", "i-0d7d8f367822d0d49" ],
                    [ ".", "MemoryUtilization", ".", "." ],
                    [ ".", "SwapUtilization", ".", "." ]
                ],
                "region": "eu-west-1",
                "title": "Memory Usage"
            }
        },
        {
            "type": "metric",
            "x": 0,
            "y": 6,
            "width": 24,
            "height": 6,
            "properties": {
                "view": "timeSeries",
                "stacked": false,
                "metrics": [
                    [ "AWS/EC2", "CPUSurplusCreditBalance", "InstanceId", "i-0d7d8f367822d0d49" ],
                    [ ".", "CPUCreditBalance", ".", "." ]
                ],
                "region": "eu-west-1",
                "title": "Jenkins Credit Limit"
            }
        }
    ]
}
