{
    "AWSTemplateFormatVersion": "2010-09-09",
    "Description": "Create a VM",
    "Parameters": {
        "KeyPair": {
            "Description": "SSH key",
            "Type": "String"
        },
	"AMIID": {
	    "Description": "AMI to boot",
	    "Type": "String",
	    "Default": "ami-d834aba1"
	}
    },
    "Resources": {
        "Ec2Instance": {
            "Type": "AWS::EC2::Instance",
            "Properties": {
                "ImageId": {"Ref": "AMIID" },
                "InstanceType": "t2.micro",
                "KeyName": {
                    "Ref": "KeyPair"
                },
		"Tags": [
		  {
		    "Key": "Name",
		    "Value": "AcademyTest"
		  }
		],
		"NetworkInterfaces": [ {
		  "AssociatePublicIpAddress": "true",
		  "DeviceIndex": "0",
		  "SubnetId": "subnet-ac9d9ada"
		} ]
            }
        }
    },
    "Outputs": {
        "InstanceId": {
            "Description": "The ID of the created VM",
            "Value": {
                "Ref": "Ec2Instance"
            }
        },
	"PublicDNS": {
	    "Description": "Public DNS Name",
	    "Value": { "Fn::GetAtt": [ "Ec2Instance", "PublicDnsName" ] }
	}
    }
}
